Using ezmtt • ezmtt
…
This object - a spectramax object - will have your data
locked away in it. You can make it dump these data in a easy, workable
data.frame by using mop::scrub:

scrub(mtt)
#> # A tibble: 96 × 6
#>     .row  .col  nm562  nm660 exp_date   is_tidy
#>    <int> <dbl>  <dbl>  <dbl> <date>     <lgl>  
#>  1     1     1 0.562  0.0688 2024-11-02 TRUE   
#>  2     1     2 0.422  0.0617 2024-11-02 TRUE   
#>  3     1     3 0.619  0.0674 2024-11-02 TRUE   
#>  4     1     4 0.445  0.0606 2024-11-02 TRUE   
#>  5     1     5 0.527  0.0648 2024-11-02 TRUE   
#>  6     1     6 0.0471 0.0427 2024-11-02 TRUE   
#>  7     1     7 0.513  0.0642 2024-11-02 TRUE   
#>  8     1     8 0.475  0.0619 2024-11-02 TRUE   
#>  9     1     9 0.538  0.0663 2024-11-02 TRUE   
#> 10     1    10 0.556  0.0621 2024-11-02 TRUE   
#> # ℹ 86 more rows
…
doses_a <- c(0, 1, 10, 100, 1000, 10000)
doses_b <- c(0, 1, 2, 4, 8, 16)

tidy <- mtt_tidy(mtt, conditions = list(drug_a = doses_a, drug_b = doses_b, NA, NA))
#> Lowest dose is 0, converting to 1e-04
#> Lowest dose is 0, converting to 0.0625

tidy
#> # A tibble: 48 × 6
#>     .row  .col  nm562  nm660       dose condition
#>    <int> <dbl>  <dbl>  <dbl>      <dbl> <fct>    
#>  1     1     1 0.562  0.0688     0.0001 drug_a   
#>  2     1     2 0.422  0.0617     1      drug_a   
#>  3     1     3 0.619  0.0674    10      drug_a   
#>  4     1     4 0.445  0.0606   100      drug_a   
#>  5     1     5 0.527  0.0648  1000      drug_a   
#>  6     1     6 0.0471 0.0427 10000      drug_a   
#>  7     2     1 0.483  0.0644     0.0001 drug_a   
#>  8     2     2 0.487  0.064      1      drug_a   
#>  9     2     3 0.442  0.0614    10      drug_a   
#> 10     2     4 0.414  0.0606   100      drug_a   
#> # ℹ 38 more rows
…
We could use gplate::gp_serve on this object to
immediately turn it into a data.frame, although it wouldn’t
have any annotations:

gp_serve(plate)
#> # A tibble: 96 × 4
#>     .row  .col  nm562  nm660
#>    <int> <dbl>  <dbl>  <dbl>
#>  1     1     1 0.562  0.0688
#>  2     1     2 0.422  0.0617
#>  3     1     3 0.619  0.0674
#>  4     1     4 0.445  0.0606
#>  5     1     5 0.527  0.0648
#>  6     1     6 0.0471 0.0427
#>  7     1     7 0.513  0.0642
#>  8     1     8 0.475  0.0619
#>  9     1     9 0.538  0.0663
#> 10     1    10 0.556  0.0621
#> # ℹ 86 more rows
…
Believe it or not, we’re done now - we can serve it:

tidy <- gp_serve(with_doses)
tidy
#> # A tibble: 96 × 6
#>     .row  .col  nm562  nm660 condition dose 
#>    <int> <dbl>  <dbl>  <dbl> <fct>     <fct>
#>  1     1     1 0.562  0.0688 drug_a    0    
#>  2     1     2 0.422  0.0617 drug_a    0    
#>  3     1     3 0.619  0.0674 drug_a    0    
#>  4     1     4 0.445  0.0606 drug_a    0    
#>  5     1     5 0.527  0.0648 drug_b    0    
#>  6     1     6 0.0471 0.0427 drug_b    0    
#>  7     1     7 0.513  0.0642 drug_b    0    
#>  8     1     8 0.475  0.0619 drug_b    0    
#>  9     1     9 0.538  0.0663 drug_c    0    
#> 10     1    10 0.556  0.0621 drug_c    0    
#> # ℹ 86 more rows
…
Let’s tidy our data really quickly:

doses <- c(0, 1, 10, 100, 1000, 10000)

tidy <- mtt_tidy(mtt, conditions = list(drug_a = doses, drug_b = doses, NA, NA))
#> Lowest dose is 0, converting to 1e-04
#> Lowest dose is 0, converting to 1e-04

tidy
#> # A tibble: 48 × 6
#>     .row  .col  nm562  nm660       dose condition
#>    <int> <dbl>  <dbl>  <dbl>      <dbl> <fct>    
#>  1     1     1 0.562  0.0688     0.0001 drug_a   
#>  2     1     2 0.422  0.0617     1      drug_a   
#>  3     1     3 0.619  0.0674    10      drug_a   
#>  4     1     4 0.445  0.0606   100      drug_a   
#>  5     1     5 0.527  0.0648  1000      drug_a   
#>  6     1     6 0.0471 0.0427 10000      drug_a   
#>  7     2     1 0.483  0.0644     0.0001 drug_a   
#>  8     2     2 0.487  0.064      1      drug_a   
#>  9     2     3 0.442  0.0614    10      drug_a   
#> 10     2     4 0.414  0.0606   100      drug_a   
#> # ℹ 38 more rows
…
